<?xml version="1.0" encoding="utf-8"?>
<!-- Generator: Adobe Illustrator 25.4.1, SVG Export Plug-In . SVG Version: 6.00 Build 0)  -->
<svg version="1.1" xmlns="http://www.w3.org/2000/svg" xmlns:xlink="http://www.w3.org/1999/xlink" x="0px" y="0px"
	 viewBox="0 0 252 252" style="enable-background:new 0 0 252 252;" xml:space="preserve">
<style type="text/css">
	.st0{fill:none;}
</style>
<g id="Sfondo">
	<rect class="st0" width="252" height="252"/>
</g>
<g id="LOGO">
	<g>
		<path d="M158.2,164.7c-15.7,1.8-27,15.7-25.7,31.3c19-1.8,35.8-11.1,47.4-25C174.1,166.2,166.4,163.7,158.2,164.7z"/>
		<path d="M74.8,157.3c-1.1-9.8-8.7-17.3-18-18.9c2.2,12.2,7.5,23.3,15.1,32.5C74.2,167,75.3,162.3,74.8,157.3z"/>
		<path d="M100.8,147.8l-23.6,28.8c10,9.6,22.8,16.4,37.1,18.7l17.9-21.8L100.8,147.8z"/>
		<path d="M158,157.6l29.3,2.7c5.7-10.1,8.9-21.8,8.9-34.3c0-4-0.4-8-1-11.8l-33-3L158,157.6z"/>
		<path d="M161.6,65.5c-8.9-5.3-19.1-8.6-30-9.5l3.1,15.1L161.6,65.5z"/>
		<path d="M193.2,105.6c-2.9-9.7-7.9-18.4-14.4-25.8l-1.2,25.1L193.2,105.6z"/>
		<path d="M112.5,95L89.2,66.1c-18.9,11.6-31.9,32-33.4,55.5l9.4,11.6L112.5,95z"/>
		<ellipse transform="matrix(0.3827 -0.9239 0.9239 0.3827 -38.7079 194.1437)" cx="125.9" cy="126" rx="28" ry="28"/>
		<ellipse transform="matrix(0.8053 -0.5929 0.5929 0.8053 -21.7459 110.07)" cx="156.7" cy="88.1" rx="16.4" ry="16.4"/>
		<path d="M105.2,75c-0.8-6.8,4.1-13,10.9-13.7s13,4.1,13.7,10.9s-4.1,13-10.9,13.7C112.1,86.7,106,81.8,105.2,75z"/>
		<path d="M85.7,149.6c-5.2,0.6-9.8-3.1-10.4-8.3c-0.6-5.2,3.1-9.8,8.3-10.4s9.8,3.1,10.4,8.3S90.9,149,85.7,149.6z"/>
	</g>
</g>
<g id="COSTRUTTIVO">
</g>
<g id="modulo">
</g>
</svg>
